%YAML 1.1
%TAG !u! tag:unity3d.com,2011:
--- !u!114 &11400000
MonoBehaviour:
  m_ObjectHideFlags: 0
  m_CorrespondingSourceObject: {fileID: 0}
  m_PrefabInstance: {fileID: 0}
  m_PrefabAsset: {fileID: 0}
  m_GameObject: {fileID: 0}
  m_Enabled: 1
  m_EditorHideFlags: 0
  m_Script: {fileID: 11500000, guid: 41b77443caad58e468c8420807411ad7, type: 3}
  m_Name: Citrine
  m_EditorClassIdentifier: 
  color: {r: 0.89019614, g: 0.70980394, b: 0.019607844, a: 1}
