%YAML 1.1
%TAG !u! tag:unity3d.com,2011:
--- !u!114 &11400000
MonoBehaviour:
  m_ObjectHideFlags: 0
  m_CorrespondingSourceObject: {fileID: 0}
  m_PrefabInstance: {fileID: 0}
  m_PrefabAsset: {fileID: 0}
  m_GameObject: {fileID: 0}
  m_Enabled: 1
  m_EditorHideFlags: 0
  m_Script: {fileID: 11500000, guid: 60b22289b0826dd4fb33c97ec885e961, type: 3}
  m_Name: Rainbow
  m_EditorClassIdentifier: 
  colors:
  - {r: 1, g: 0, b: 0, a: 1}
  - {r: 1, g: 0.49019608, b: 0, a: 1}
  - {r: 1, g: 1, b: 0, a: 1}
  - {r: 0, g: 1, b: 0, a: 1}
  - {r: 0, g: 0, b: 1, a: 1}
  - {r: 0.49019608, g: 0, b: 1, a: 1}
  - {r: 1, g: 0, b: 1, a: 1}
  duration: 4.5
