%YAML 1.1
%TAG !u! tag:unity3d.com,2011:
--- !u!114 &11400000
MonoBehaviour:
  m_ObjectHideFlags: 0
  m_CorrespondingSourceObject: {fileID: 0}
  m_PrefabInstance: {fileID: 0}
  m_PrefabAsset: {fileID: 0}
  m_GameObject: {fileID: 0}
  m_Enabled: 1
  m_EditorHideFlags: 0
  m_Script: {fileID: 11500000, guid: bd741a4aaf4c5184cac1d39babcd4cb9, type: 3}
  m_Name: BGAudioList
  m_EditorClassIdentifier: 
  commands:
  - Key: 121
    Command: {fileID: 11400000, guid: 7b6e163d9ca529741a96f82cfe9c2029, type: 2}
  - Key: 117
    Command: {fileID: 11400000, guid: 070e80421ce89044b85576f452cf077e, type: 2}
  - Key: 105
    Command: {fileID: 11400000, guid: 49c61d2cbd19ec445931dd163d71bb48, type: 2}
  - Key: 112
    Command: {fileID: 11400000, guid: cc7b061af9d1b494394bed2a063dae40, type: 2}
