%YAML 1.1
%TAG !u! tag:unity3d.com,2011:
--- !u!114 &11400000
MonoBehaviour:
  m_ObjectHideFlags: 0
  m_CorrespondingSourceObject: {fileID: 0}
  m_PrefabInstance: {fileID: 0}
  m_PrefabAsset: {fileID: 0}
  m_GameObject: {fileID: 0}
  m_Enabled: 1
  m_EditorHideFlags: 0
  m_Script: {fileID: 11500000, guid: bd741a4aaf4c5184cac1d39babcd4cb9, type: 3}
  m_Name: SFXList
  m_EditorClassIdentifier: 
  commands:
  - Key: 106
    Command: {fileID: 11400000, guid: 157e30ecd6d353b4ab13ec56aff25837, type: 2}
  - Key: 107
    Command: {fileID: 11400000, guid: cc303d99d9c48c144a5401e45240a60f, type: 2}
  - Key: 108
    Command: {fileID: 11400000, guid: 8b0a1450cf054c248b36f31297ef9880, type: 2}
